[
  {
    "name": "No margin bottom",
    "value": "mb-0"
  },
  {
    "name": "Minimal margin bottom",
    "value": "mt-1 sm:mt-3"
  },
  {
    "name": "Small margin bottom",
    "value": "mt-3 sm:mt-6"
  },
  {
    "name": "Normal margin bottom",
    "value": "mb-6 sm:mb-12"
  },
  {
    "name": "More margin bottom",
    "value": "mb-12 sm:mb-18"
  }
]