[
  {
    "name": "Klein",
    "value": "text-3xl md:text-4xl"
  },
  {
    "name": "Normal",
    "value": "text-4xl md:text-6xl"
  },
  {
    "name": "Gross",
    "value": "text-6xl md:text-8xl"
  }
]